{
  "name": "build",
  "description": "Builds and processes all application assets.",
  "flags": [
    {
      "name": "version",
      "description": "Sets the version of the application",
      "type": "string"
    },
    {
      "name": "env",
      "description": "Sets the build environment.",
      "type": "string"
    }
  ]
}
